week6
…
women_at_home: Believe women should stay home

obamamuslim: Believe Obama is a Muslim

age: Age in years

age0: Age in years (starting with 18 = 0)

educ_hs: Any kind of post-secondary education

republican: Identifies with Republican party (including leaners)

Running example: ANES 2016 data

# A tibble: 4,270 × 7
   ft_trump_post women_at_home obamamuslim   age  age0 educ_hs republican
           <dbl>         <dbl>       <dbl> <dbl> <dbl>   <dbl>      <dbl>
 1            85             0           0    29    11       1          1
 2            60             0           1    26     8       1          1
 3            70             1           1    23     5       1          0
 4            60             1           0    58    40       1          1
 5            15             0           1    38    20       1          0
 6            65             0           0    60    42       1          1
 7            50             0           0    58    40       0          0
 8            85             1           1    56    38       1          0
 9            70             0           0    45    27       1          1
10            60             0           0    30    12       1          0
# ℹ 4,260 more rows
…
